…
``` r
combined_merge %>% 
  group_by(id) %>% 
  summarize(sumz = sum(total_steps))
```

    ## # A tibble: 24 × 2
    ##            id   sumz
    ##         <dbl>  <dbl>
    ##  1 1503960366 310142
    ##  2 1644430081  31871
    ##  3 1844505072  10431
    ##  4 1927972279   7450
    ##  5 2026352035 157323
    ##  6 2320127002   5079
    ##  7 2347167796 127998
    ##  8 3977333714 314104
    ##  9 4020332650  52774
    ## 10 4319703577 185261
    ## # … with 14 more rows
…
